{
    "name": "KelolaMataKuliah",
    "alias": "kelolamatakuliah",
    "description": "",
    "keywords": [],
    "priority": 0,
    "providers": [
        "Modules\\KelolaMataKuliah\\Providers\\KelolaMataKuliahServiceProvider"
    ],
    "aliases": {},
    "files": [],
    "requires": []
}
