{
    "name": "MataKuliah",
    "alias": "matakuliah",
    "description": "",
    "keywords": [],
    "priority": 0,
    "providers": [
        "Modules\\MataKuliah\\Providers\\MataKuliahServiceProvider"
    ],
    "aliases": {},
    "files": [],
    "requires": []
}
