{
    "name": "SesiPertemuan",
    "alias": "sesipertemuan",
    "description": "",
    "keywords": [],
    "priority": 0,
    "providers": [
        "Modules\\SesiPertemuan\\Providers\\SesiPertemuanServiceProvider"
    ],
    "aliases": {},
    "files": [],
    "requires": []
}
